{
    "name": "unibi.vnt.spatial",
    "rootNamespace": "",
    "references": [
        "GUID:c964f7f81f20cb84fabdedd01f81b810"
    ],
    "includePlatforms": [],
    "excludePlatforms": [],
    "allowUnsafeCode": false,
    "overrideReferences": false,
    "precompiledReferences": [],
    "autoReferenced": true,
    "defineConstraints": [],
    "versionDefines": [],
    "noEngineReferences": false
}