%YAML 1.1
%TAG !u! tag:unity3d.com,2011:
--- !u!114 &11400000
MonoBehaviour:
  m_ObjectHideFlags: 0
  m_CorrespondingSourceObject: {fileID: 0}
  m_PrefabInstance: {fileID: 0}
  m_PrefabAsset: {fileID: 0}
  m_GameObject: {fileID: 0}
  m_Enabled: 1
  m_EditorHideFlags: 0
  m_Script: {fileID: 11500000, guid: 256b8f68088d21b458fd5275e3d7a6b5, type: 3}
  m_Name: UiStrings-ENG
  m_EditorClassIdentifier: 
  ApproachInfoText: Please walk onto the goal location.
  DoneBtnTxt: Done!
  ExploreBtnTxt: Done Exploring!
  ExploreInfoTxt: Walk around the campfire and get used to the controls. You will
    have to return to to this location later, but the marker will not be visible.
    Click OK to continue!
  FeedbackInfoTxt: 'To see how well you did, move around and check the red and blue
    arrows: the red one shows where you stated the new fire, the blue one the old
    location of the fireplace.'
  GuidedReturnInfoText: Text Goes Here
  HomeBtnTxt: I'm Home!
  HomeReachableInfoTxt: When you think you have reached the location of your campfire,
    click the button.
  HomingContinueInfoTxt: Please contine your return to the campfire.
  HomingStartInfoTxt: 'Please return to the location of your campfire. '
  MockTrialConfidenceRequestText: some text
  OKBtnTxt: OK
  PointBtnTxt: Done Pointing!
  PointingConfTxt: Do you think you placed the marker exactly on your campfire? Please
    indicate your confidence below.
  PointingInfoTxt: Please place a marker at the location of your campfire.
  PointingTimeoutTxt: Pointing timed out! Please be quicker next time.
  ScoreTxt: 'Your score for this trial was: '
  SessionDoneTxt: Congratulations! You successfully finished the current session.
    Click the button to return to the main menu.
  TeleportInfoTxt: "You will now be teleported to a new position. \n Press OK to
    continue!"
  TimeoutTxt: 'Time left: '
  ToggleInfoText: Press 'space' to show/hide mouse cursor.
  TrialConfTxt: Do you think you managed to return to your campfire exactly? Please
    indicate your confidence below.
  TrialTimeoutTxt: Trial timed out! Please be quicker next time.
  TurnInfoText: Turn in the direction indicated by the arrow to continue.
  WaypointInfoTxt: Your fire has almost gone out! Follow the arrow and collect some
    more firewood.
